\BOOKMARK [0][-]{chapter.1}{Installation}{}% 1
\BOOKMARK [1][-]{section.1.1}{Dependencies}{chapter.1}% 2
\BOOKMARK [0][-]{chapter.2}{Indices and tables}{}% 3
\BOOKMARK [0][-]{section*.3}{Python Module Index}{}% 4
